20,7989,8007,,,,,Data Size,NN,BSP,2OPT
24,8018,8037,,,,,48,4.2,12.7,13.4
20,7900,7923,,,,,150,5.3,133.5,135.1
19,8052,8075,,,,,280,12.7,739.5,743.4
20,7903,7922,,,,,535,15.9,4196.5,4209
22,8089,8109,,,,,666,20.8,7988.6,8008.3
18,7961,7979,,,,,1000,50.9,27324.5,27370.1
19,7918,7937,,,,,4461,555,2320493,2321326
25,8000,8019,,,,,,,,
21,8056,8075,,,,,,,,
20.8,7988.6,8008.3,,,,,,,,
